forcats.utf8.md
…
Exclude Levels

factor(mtcars$cyl, exclude = 4)

##  [1] 6    6    <NA> 6    8    6    8    <NA> <NA> 6    6    8    8    8   
## [15] 8    8    8    <NA> <NA> <NA> <NA> 8    8    8    8    <NA> <NA> <NA>
## [29] 8    6    8    <NA>
## Levels: 6 8

Case Study: Data

## # A tibble: 48,232 x 1
##    traffics
##    <fct>   
##  1 google  
##  2 google  
##  3 google  
##  4 google  
##  5 google  
##  6 google  
##  7 google  
##  8 google  
##  9 google  
## 10 google  
## # ... with 48,222 more rows
…
Reorder Levels

fct_relevel(traffics, "facebook", after = Inf) %>% levels()

## [1] "google"     "affiliates" "bing"       "yahoo"      "twitter"   
## [6] "instagram"  "unknown"    "direct"     "facebook"

Data

response

## # A tibble: 1,000 x 1
##    response        
##    <ord>           
##  1 dislike         
##  2 like somewhat   
##  3 dislike         
##  4 neutral         
##  5 dislike         
##  6 like somewhat   
##  7 like somewhat   
##  8 like somewhat   
##  9 dislike somewhat
## 10 neutral         
## # ... with 990 more rows
…
