dplyr-part-3.utf8.md
…
compare tables

extract/mutate data using predicate functions

count observations for different levels of a variable

Libraries

library(dplyr)
library(readr)

Data

## # A tibble: 1,000 x 7
##    referrer device bouncers n_visit n_pages duration purchase
##    <fct>    <fct>  <lgl>      <dbl>   <dbl>    <dbl> <lgl>   
##  1 google   laptop TRUE          10       1      693 FALSE   
##  2 yahoo    tablet TRUE           9       1      459 FALSE   
##  3 direct   laptop TRUE           0       1      996 FALSE   
##  4 bing     tablet FALSE          3      18      468 TRUE    
##  5 yahoo    mobile TRUE           9       1      955 FALSE   
##  6 yahoo    laptop FALSE          5       5      135 FALSE   
##  7 yahoo    mobile TRUE          10       1       75 FALSE   
##  8 direct   mobile TRUE          10       1      908 FALSE   
##  9 bing     mobile FALSE          3      19      209 FALSE   
## 10 google   mobile TRUE           6       1      208 FALSE   
## # ... with 990 more rows
…
Rename Columns

rename(ecom, time_on_site = duration)

## # A tibble: 1,000 x 7
##    referrer device bouncers n_visit n_pages time_on_site purchase
##    <fct>    <fct>  <lgl>      <dbl>   <dbl>        <dbl> <lgl>   
##  1 google   laptop TRUE          10       1          693 FALSE   
##  2 yahoo    tablet TRUE           9       1          459 FALSE   
##  3 direct   laptop TRUE           0       1          996 FALSE   
##  4 bing     tablet FALSE          3      18          468 TRUE    
##  5 yahoo    mobile TRUE           9       1          955 FALSE   
##  6 yahoo    laptop FALSE          5       5          135 FALSE   
##  7 yahoo    mobile TRUE          10       1           75 FALSE   
##  8 direct   mobile TRUE          10       1          908 FALSE   
##  9 bing     mobile FALSE          3      19          209 FALSE   
## 10 google   mobile TRUE           6       1          208 FALSE   
## # ... with 990 more rows
…
Sampling Data

sample_n(ecom, size = 700)

## # A tibble: 700 x 7
##    referrer device bouncers n_visit n_pages duration purchase
##    <fct>    <fct>  <lgl>      <dbl>   <dbl>    <dbl> <lgl>   
##  1 bing     tablet FALSE          2       5      150 FALSE   
##  2 social   tablet TRUE           9       1      157 FALSE   
##  3 yahoo    tablet TRUE           6       1       67 FALSE   
##  4 direct   laptop FALSE          1      14      364 TRUE    
##  5 direct   mobile FALSE          2       9      243 FALSE   
##  6 direct   tablet FALSE         10       3       57 FALSE   
##  7 yahoo    tablet TRUE          10       1      668 FALSE   
##  8 yahoo    tablet FALSE          2      20      320 FALSE   
##  9 bing     tablet TRUE           0       1      845 FALSE   
## 10 yahoo    mobile FALSE          8       9      225 FALSE   
## # ... with 690 more rows

Sampling Data

sample_frac(ecom, size = 0.7)

## # A tibble: 700 x 7
##    referrer device bouncers n_visit n_pages duration purchase
##    <fct>    <fct>  <lgl>      <dbl>   <dbl>    <dbl> <lgl>   
##  1 bing     tablet TRUE           6       1      567 FALSE   
##  2 bing     tablet FALSE          6       9      198 FALSE   
##  3 bing     laptop TRUE           3       1      271 FALSE   
##  4 bing     mobile FALSE         10       1       26 FALSE   
##  5 bing     mobile TRUE           5       1      751 FALSE   
##  6 bing     tablet FALSE          1       8      144 FALSE   
##  7 yahoo    mobile TRUE          10       1      761 FALSE   
##  8 bing     laptop FALSE          8      10      260 TRUE    
##  9 direct   tablet FALSE          1       3       69 FALSE   
## 10 google   laptop TRUE           9       1      174 FALSE   
## # ... with 690 more rows
…
Case When

ecom %>%
  mutate(
    repeat_visit = case_when(
      n_visit > 0 ~ TRUE,
      TRUE ~ FALSE
    )
  ) %>%
  select(n_visit, repeat_visit) 

## # A tibble: 1,000 x 2
##    n_visit repeat_visit
##      <dbl> <lgl>       
##  1      10 TRUE        
##  2       9 TRUE        
##  3       0 FALSE       
##  4       3 TRUE        
##  5       9 TRUE        
##  6       5 TRUE        
##  7      10 TRUE        
##  8      10 TRUE        
##  9       3 TRUE        
## 10       6 TRUE        
## # ... with 990 more rows
…
